module bitbucket.org/infomaker/cca-client/v2

go 1.21

require (
	bitbucket.org/infomaker/doc-format/v2 v2.12.3
	github.com/twitchtv/twirp v8.1.3+incompatible
	golang.org/x/net v0.19.0
	golang.org/x/oauth2 v0.15.0
	google.golang.org/protobuf v1.31.0
)

require (
	github.com/golang/protobuf v1.5.3 // indirect
	github.com/pkg/errors v0.9.1 // indirect
	google.golang.org/appengine v1.6.8 // indirect
)
